Get the Phecode or description of ICD-9 diagnosis codes — IcdDxToPhecode • emr
…
#> [3913] NA       NA       NA       NA       NA       NA       NA       NA      
#> [3921] NA       NA       NA       NA       NA       NA       NA       NA      
#> [3929] NA       NA       NA       NA       NA       NA       NA       NA      
#> [3937] NA       NA       NA       NA       NA       NA       NA       NA      
#> [3945] NA       NA       NA       NA       NA       NA       NA       NA      
#> [3953] NA       NA       NA       NA       NA       NA       NA       NA      
#> [3961] NA       NA       NA       NA       NA       NA       NA       NA      
#> [3969] NA       NA       NA       NA       NA       NA       NA       NA      
#> [3977] NA       NA       NA       NA       NA       NA       NA       NA      
#> [3985] NA       NA       NA       NA       NA       NA       NA       NA      
#> [3993] NA       NA       NA       NA       NA       NA       NA       NA      
#> [4001] NA       NA       NA       NA       NA      
#> 
#> $groupedData_Long
#> # A tibble: 704 x 6
#> # Groups:   ID [?]
#>    ID    PheCode firstCaseDate endCaseDate period     count
#>    <chr> <chr>   <date>        <date>      <time>     <int>
#>  1 A     038.1   2013-03-03    2013-03-03  "  0 days"     1
#>  2 A     041     2013-03-04    2013-03-11  "  7 days"     2
#>  3 A     041.12  2013-06-20    2013-06-20  "  0 days"     1
#>  4 A     070     2013-06-27    2013-06-27  "  0 days"     1
#>  5 A     070.2   2013-04-02    2013-06-01  " 60 days"     2
#>  6 A     070.3   2013-02-02    2013-06-27  145 days      26
#>  7 A     070.9   2013-05-25    2013-06-13  " 19 days"     3
#>  8 A     071     2013-04-26    2013-04-26  "  0 days"     1
#>  9 A     1001    2013-06-17    2013-06-17  "  0 days"     1
#> 10 A     1005    2013-05-17    2013-06-03  " 17 days"     3
#> # ... with 694 more rows
…
