Get the Multi-level Clinical Classifications Software (CCS) categories and description for ICD-9 and ICD-10 codes on diagnoses. — IcdDxToCCSLvl • emr
…
#> [3994] "Other bone disease and musculoskeletal deformities"              
#> [3995] "Factors influencing health care"                                 
#> [3996] "Neoplasms of unspecified nature or uncertain behavior"           
#> [3997] "Alcohol-related disorders"                                       
#> [3998] "Alcohol-related disorders"                                       
#> [3999] "Liver disease"                                                   
#> [4000] "Residual codes; unclassified; all E codes  and"                  
#> [4001] "Hereditary and degenerative nervous system conditions"           
#> [4002] "Other nutritional; endocrine; and metabolic disorders"           
#> [4003] NA                                                                
#> [4004] NA                                                                
#> [4005] NA                                                                
#> 
#> $groupedData_Long
#> # A tibble: 328 x 6
#> # Groups:   ID [?]
#>    ID    CCS_LVL_2_LABEL           firstCaseDate endCaseDate period     count
#>    <chr> <chr>                     <date>        <date>      <time>     <int>
#>  1 A     Abdominal hernia          2013-06-10    2015-10-21  863 days       4
#>  2 A     Acquired deformities      2013-06-13    2015-10-16  855 days       5
#>  3 A     Alcohol-related disorders 2013-04-21    2015-10-22  914 days      20
#>  4 A     Anemia                    2013-03-14    2015-10-13  943 days      26
#>  5 A     Anxiety disorders         2013-04-16    2015-10-15  912 days      11
#>  6 A     Asthma                    2013-05-25    2015-10-06  864 days       7
#>  7 A     Bacterial infection       2013-03-03    2015-10-26  967 days      10
#>  8 A     Benign neoplasms          2013-06-03    2015-11-02  882 days       9
#>  9 A     Biliary tract disease     2015-10-06    2015-10-21  " 15 days"     3
#> 10 A     Cancer of breast          2013-05-03    2015-10-08  888 days       2
#> # ... with 318 more rows
…
