Grouping comorbid method comorbidities (AHRQ, Charlson and Elixhauser Comorbidity) infers whether to use ICD-9 or ICD-10 codes — IcdDxToComorbid • emr
…
#> 3994  A   M99.02 2015-10-22   3994   M9902        <NA>
#> 3995  B    Z12.5 2015-10-26   3995    Z125        <NA>
#> 3996  C    D48.5 2015-10-28   3996    D485        <NA>
#> 3997  A   F10.10 2015-10-11   3997   F1010        <NA>
#> 3998  B   F10.10 2015-10-10   3998   F1010        <NA>
#> 3999  C   K74.60 2015-11-02   3999   K7460   LiverMild
#> 4000  A    Z72.0 2015-10-07   4000    Z720        <NA>
#> 4001  B   G25.81 2015-10-05   4001   G2581        <NA>
#> 4002  C   Z68.32 2015-10-09   4002   Z6832        <NA>
#> 4003  A    42761 2015-10-11   4003   42761        <NA>
#> 4004  B    12345 2013-10-11   4004   12345        <NA>
#> 4005  C   123.45 2015-10-11   4005  123.45        <NA>
#> 
#> $groupedData_Long
#> # A tibble: 48 x 6
#> # Groups:   ID [?]
#>    ID    Comorbidity firstCaseDate endCaseDate period      count
#>    <chr> <chr>       <date>        <date>      <time>      <int>
#>  1 A     Cancer      2013-02-17    2015-10-30  " 985 days"     9
#>  2 A     CHF         2013-04-27    2015-10-15  " 901 days"    10
#>  3 A     Dementia    2015-10-05    2015-10-05  "   0 days"     1
#>  4 A     DM          2013-03-19    2015-11-02  " 958 days"    28
#>  5 A     DMcx        2013-04-30    2015-10-22  " 905 days"     7
#>  6 A     HIV         2015-10-22    2015-10-22  "   0 days"     1
#>  7 A     LiverMild   2013-01-04    2015-10-28  1027 days      64
#>  8 A     LiverSevere 2013-04-18    2015-11-05  " 931 days"    15
#>  9 A     Mets        2013-04-30    2015-10-16  " 899 days"     5
#> 10 A     MI          2013-06-02    2015-10-07  " 857 days"     3
#> # ... with 38 more rows
…
#> 3994  A   M99.02 2015-10-22   3994   M9902        <NA>
#> 3995  B    Z12.5 2015-10-26   3995    Z125        <NA>
#> 3996  C    D48.5 2015-10-28   3996    D485        <NA>
#> 3997  A   F10.10 2015-10-11   3997   F1010        AIDS
#> 3998  B   F10.10 2015-10-10   3998   F1010        AIDS
#> 3999  C   K74.60 2015-11-02   3999   K7460     HYPOTHY
#> 4000  A    Z72.0 2015-10-07   4000    Z720        <NA>
#> 4001  B   G25.81 2015-10-05   4001   G2581        METS
#> 4002  C   Z68.32 2015-10-09   4002   Z6832       NEURO
#> 4003  A    42761 2015-10-11   4003   42761        <NA>
#> 4004  B    12345 2013-10-11   4004   12345        <NA>
#> 4005  C   123.45 2015-10-11   4005  123.45        <NA>
#> 
#> $groupedData_Long
#> # A tibble: 99 x 6
#> # Groups:   ID [?]
#>    ID    Comorbidity firstCaseDate endCaseDate period     count
#>    <chr> <chr>       <date>        <date>      <time>     <int>
#>  1 A     AIDS        2015-10-03    2015-10-22  " 19 days"     4
#>  2 A     ALCOHOL     2013-05-28    2015-10-07  862 days       8
#>  3 A     ANEMDEF     2013-03-14    2015-10-23  953 days      23
#>  4 A     ARTH        2013-06-12    2013-06-12  "  0 days"     1
#>  5 A     CHF         2013-04-27    2015-10-15  901 days      15
#>  6 A     CHRNLUNG    2013-05-16    2013-06-25  " 40 days"     6
#>  7 A     COAG        2013-02-28    2015-10-22  966 days      13
#>  8 A     DEPRESS     2013-05-10    2015-11-02  906 days      28
#>  9 A     DM          2013-03-19    2015-10-22  947 days      17
#> 10 A     DMCX        2013-04-30    2015-10-29  912 days      12
#> # ... with 89 more rows
…
#> 4003  A   M99.02 2015-10-22   3994   M9902         <NA>
#> 4004  B    Z12.5 2015-10-26   3995    Z125         <NA>
#> 4005  C    D48.5 2015-10-28   3996    D485         <NA>
#> 4006  A   F10.10 2015-10-11   3997   F1010      Alcohol
#> 4007  B   F10.10 2015-10-10   3998   F1010      Alcohol
#> 4008  C   K74.60 2015-11-02   3999   K7460        Liver
#> 4009  A    Z72.0 2015-10-07   4000    Z720         <NA>
#> 4010  B   G25.81 2015-10-05   4001   G2581   NeuroOther
#> 4011  C   Z68.32 2015-10-09   4002   Z6832      Obesity
#> 4012  A    42761 2015-10-11   4003   42761         <NA>
#> 4013  B    12345 2013-10-11   4004   12345         <NA>
#> 4014  C   123.45 2015-10-11   4005  123.45         <NA>
#> 
#> $groupedData_Long
#> # A tibble: 83 x 6
#> # Groups:   ID [?]
#>    ID    Comorbidity  firstCaseDate endCaseDate period     count
#>    <chr> <chr>        <date>        <date>      <time>     <int>
#>  1 A     Alcohol      2013-05-28    2015-10-22  877 days       9
#>  2 A     Anemia       2013-03-14    2015-10-07  937 days      20
#>  3 A     CHF          2013-04-27    2015-10-15  901 days       6
#>  4 A     Coagulopathy 2013-02-28    2013-06-22  114 days       4
#>  5 A     Depression   2013-05-10    2015-10-22  895 days      24
#>  6 A     DM           2013-03-19    2015-11-02  958 days      26
#>  7 A     DMcx         2013-04-30    2015-10-22  905 days      10
#>  8 A     Drugs        2013-03-13    2015-10-29  960 days      17
#>  9 A     FluidsLytes  2013-03-27    2015-10-31  948 days      33
#> 10 A     HIV          2015-10-22    2015-10-22  "  0 days"     1
#> # ... with 73 more rows
…
