Get the Clinical Classifications Software (CCS) categories and description for ICD-9 and ICD-10 codes on diagnoses. — IcdDxToCCS • emr
…
#> [3994] "Other bone disease and musculoskeletal deformities"                                                                
#> [3995] "Other screening for suspected conditions (not mental disorders or infectious disease)"                             
#> [3996] "Neoplasms of unspecified nature or uncertain behavior"                                                             
#> [3997] "Alcohol-related disorders"                                                                                         
#> [3998] "Alcohol-related disorders"                                                                                         
#> [3999] "Other liver diseases"                                                                                              
#> [4000] "Residual codes; unclassified"                                                                                      
#> [4001] "Other hereditary and degenerative nervous system conditions"                                                       
#> [4002] "Other nutritional; endocrine; and metabolic disorders"                                                             
#> [4003] NA                                                                                                                  
#> [4004] NA                                                                                                                  
#> [4005] NA                                                                                                                  
#> 
#> $groupedData_Long
#> # A tibble: 458 x 6
#> # Groups:   ID [?]
#>    ID    CCS_CATEGORY_DESCRIPTION     firstCaseDate endCaseDate period    count
#>    <chr> <chr>                        <date>        <date>      <time>    <int>
#>  1 A     Abdominal hernia             2013-06-10    2015-10-21  " 863 da~     4
#>  2 A     Abdominal pain               2013-01-02    2015-10-14  1015 days    10
#>  3 A     Acquired foot deformities    2013-06-13    2015-10-16  " 855 da~     3
#>  4 A     Acute and unspecified renal~ 2013-02-27    2015-10-02  " 947 da~    12
#>  5 A     Acute bronchitis             2013-06-11    2013-06-11  "   0 da~     1
#>  6 A     Acute cerebrovascular disea~ 2013-06-01    2013-06-27  "  26 da~     2
#>  7 A     Acute posthemorrhagic anemia 2013-05-31    2013-05-31  "   0 da~     1
#>  8 A     Administrative/social admis~ 2015-10-13    2015-10-21  "   8 da~     6
#>  9 A     Adverse effects of medical ~ 2015-10-29    2015-10-29  "   0 da~     1
#> 10 A     Alcohol-related disorders    2013-04-21    2015-10-22  " 914 da~    20
#> # ... with 448 more rows
…
